<svg xmlns="http://www.w3.org/2000/svg" width="50.548" height="53.542" viewBox="0 0 50.548 53.542">
    <defs>
        <style>
            .cls-1,.cls-2{fill:none;stroke-miterlimit:10;stroke-width:2px}.cls-1{stroke:#135755}.cls-2{stroke:#a0c63f}
        </style>
    </defs>
    <g id="Group_164" data-name="Group 164" transform="translate(1 1)">
        <g id="Group_108" data-name="Group 108" transform="translate(0 2.994)">
            <path id="Path_22" d="M1172.766 102.8a11.354 11.354 0 0 1-.348 2.432 13.369 13.369 0 0 1-.724 2.36q-.726 1.729-4.208 3.656a13.358 13.358 0 0 1-6.411 1.76 13.151 13.151 0 0 1-1.809-.12 15.317 15.317 0 0 1-1.984-.432c-.737-.208-1.286-.373-1.639-.5s-.993-.364-1.913-.711-1.48-.549-1.691-.617a31.181 31.181 0 0 1-6.031-2.867 50.987 50.987 0 0 1-9.12-7.428 51.147 51.147 0 0 1-7.431-9.119 31.394 31.394 0 0 1-2.864-6.035c-.068-.208-.273-.769-.62-1.688s-.578-1.555-.708-1.915-.289-.9-.5-1.636a14.892 14.892 0 0 1-.431-1.984 13.215 13.215 0 0 1-.12-1.808 13.387 13.387 0 0 1 1.756-6.412q1.933-3.482 3.659-4.207a13.109 13.109 0 0 1 2.36-.727 11.5 11.5 0 0 1 2.428-.344 1.938 1.938 0 0 1 .724.1q.624.2 1.828 2.623.379.653 1.035 1.857t1.208 2.195c.367.656.724 1.269 1.065 1.841q.107.141.6.867a9.646 9.646 0 0 1 .747 1.221 2.324 2.324 0 0 1 .24.984 2.872 2.872 0 0 1-.987 1.724 17.009 17.009 0 0 1-2.136 1.9 21.416 21.416 0 0 0-2.139 1.825 2.651 2.651 0 0 0-.981 1.591 2.319 2.319 0 0 0 .172.776c.117.308.214.542.3.7s.24.438.481.828.377.607.4.656a34.217 34.217 0 0 0 14.1 14.1c.049.019.267.153.656.393s.665.4.828.484a6.986 6.986 0 0 0 .7.292 2.329 2.329 0 0 0 .776.175 2.639 2.639 0 0 0 1.587-.984 21.086 21.086 0 0 0 1.828-2.139 17.222 17.222 0 0 1 1.9-2.136 2.861 2.861 0 0 1 1.724-.984 2.308 2.308 0 0 1 .981.24 9.8 9.8 0 0 1 1.224.743c.484.334.773.536.863.6.572.341 1.189.7 1.844 1.068s1.383.769 2.191 1.2 1.425.786 1.86 1.039q2.411 1.208 2.623 1.824a1.95 1.95 0 0 1 .107.739z" class="cls-1" data-name="Path 22" transform="translate(-1124.218 -64.458)"/>
        </g>
        <ellipse id="Ellipse_22" cx="6.835" cy="6.835" class="cls-2" data-name="Ellipse 22" rx="6.835" ry="6.835" transform="translate(30.051)"/>
    </g>
</svg>
