<svg xmlns="http://www.w3.org/2000/svg" width="46.998" height="46.998" viewBox="0 0 46.998 46.998">
    <defs>
        <style>
            .cls-1{fill:none;stroke:#a0c63f;stroke-linecap:round;stroke-width:3px}
        </style>
    </defs>
    <g id="Group_156" data-name="Group 156" transform="translate(-4.689 4.814)">
        <path id="Path_237" d="M0 0h58.626" class="cls-1" data-name="Path 237" transform="rotate(-45 51.24 9.755)"/>
        <path id="Path_238" d="M0 0h60.465" class="cls-1" data-name="Path 238" transform="rotate(45 6.656 6.874)"/>
    </g>
</svg>
