<svg xmlns="http://www.w3.org/2000/svg" width="51.642" height="51.642" viewBox="0 0 51.642 51.642">
    <defs>
        <style>
            .cls-1,.cls-2{fill:none}.cls-1{stroke:#0c3a38;stroke-miterlimit:10;opacity:.7}.cls-2{stroke:#a0c63f;stroke-linejoin:round;stroke-width:2.5px}
        </style>
    </defs>
    <g id="Component_2_9" data-name="Component 2 – 9" transform="translate(.5 .5)">
        <g id="Group_270" data-name="Group 270" transform="rotate(90 1373.447 -44.385)">
            <circle id="Ellipse_4" cx="25.321" cy="25.321" r="25.321" class="cls-1" data-name="Ellipse 4" transform="translate(1417.832 1278.42)"/>
            <g id="Group_37" data-name="Group 37">
                <path id="Line_5" d="M0 0h13.376" class="cls-2" data-name="Line 5" transform="translate(1435.62 1303.502)"/>
                <path id="Path_91" d="M1444.153 1298.163l5.174 5.339-5.174 5.064" class="cls-2" data-name="Path 91"/>
            </g>
        </g>
    </g>
</svg>
