<svg xmlns="http://www.w3.org/2000/svg" width="61.849" height="44.131" viewBox="0 0 61.849 44.131">
    <defs>
        <style>
            .cls-1{fill:#135755}
        </style>
    </defs>
    <g id="Group_89" data-name="Group 89" transform="translate(-1246.319 -6313.087)">
        <g id="Group_88" data-name="Group 88">
            <path id="Path_191" d="M1302.948 6313.087h-51.409a5.227 5.227 0 0 0-5.22 5.221V6352a5.226 5.226 0 0 0 5.22 5.22h51.409a5.225 5.225 0 0 0 5.22-5.22v-33.69a5.226 5.226 0 0 0-5.22-5.223zm-51.409 2.538h51.409a2.686 2.686 0 0 1 2.682 2.683V6352a2.686 2.686 0 0 1-2.682 2.683h-51.409a2.686 2.686 0 0 1-2.682-2.683v-33.69a2.686 2.686 0 0 1 2.682-2.685z" class="cls-1" data-name="Path 191"/>
            <path id="Path_192" d="M1268.608 6334.593l-11.221 10.515a1.269 1.269 0 0 0 1.744 1.844l11.382-10.664c.006-.006.008-.015.014-.021l3.343 2.915a5.278 5.278 0 0 0 6.752-.008l3.343-2.914c.009.009.011.021.021.03l11.367 10.662a1.277 1.277 0 0 0 1.794-.05 1.268 1.268 0 0 0-.051-1.795l-11.218-10.516 16.94-14.772a1.155 1.155 0 0 0 .114-1.647 1.2 1.2 0 0 0-1.652-.113l-22.2 19.358a3.024 3.024 0 0 1-3.685 0l-22.228-19.4a1.215 1.215 0 0 0-1.647.118 1.17 1.17 0 0 0-.284.859 1.146 1.146 0 0 0 .4.791z" class="cls-1" data-name="Path 192"/>
        </g>
    </g>
</svg>
