<svg xmlns="http://www.w3.org/2000/svg" width="51.502" height="32.496" viewBox="0 0 51.502 32.496">
    <defs>
        <style>
            .cls-1{fill:none;stroke:#fff;stroke-linecap:round;stroke-miterlimit:10;stroke-width:5px}
        </style>
    </defs>
    <g id="Group_202" data-name="Group 202" transform="translate(-302.998 -91.737)">
        <g id="Group_201" data-name="Group 201" transform="translate(305.498 94.237)">
            <path id="Line_43" d="M0 0h46.502" class="cls-1" data-name="Line 43"/>
            <path id="Line_44" d="M0 0h46.502" class="cls-1" data-name="Line 44" transform="translate(0 13.748)"/>
            <path id="Line_45" d="M0 0h46.502" class="cls-1" data-name="Line 45" transform="translate(0 27.496)"/>
        </g>
    </g>
</svg>
