{
	"buttons": ["html", "format", "bold", "italic", "underline", "unorderedlist", "orderedlist", "link", "image", "video", "filemanager", "file"],
	"plugins": ["fullscreen", "fontcolor", "video", "fontsize", "customstyles"],
	"linkNewTab": true,
	"toolbarFixed": true
}