{
	"buttons": ["html", "format", "bold", "italic", "underline", "unorderedlist", "orderedlist", "link", "image", "video", "filemanager", "file"],
	"plugins": ["fullscreen", "fontcolor", "video", "fontsize", "customstyles"],
	"linkNewTab": true,
	"toolbarFixed": true,
	"customStyles": {
		"Custom": {
			"dropdown": {
				"lightbox": {
					"args": {
						"tag": "span",
						"attr": {
							"data-uk-lightbox": ""
						},
						"type": "toggle"
					}
				}
			}
		}
	}
}